Canadian Elections 2021
…
    chisq.test, fisher.test

simulated_data <-
  tibble(
    "Division" = 1:338,
    "Party" = sample(
      x = c("Liberal", "Conservative", "Bloc Québécois", "New Democratic", "Green", "Other"),
      size = 338,
      replace = TRUE
    )
  )

simulated_data

# A tibble: 338 × 2
   Division Party         
      <int> <chr>         
 1        1 Other         
 2        2 Other         
 3        3 New Democratic
 4        4 Conservative  
 5        5 Bloc Québécois
 6        6 Liberal       
 7        7 New Democratic
 8        8 Other         
 9        9 New Democratic
10       10 New Democratic
# ℹ 328 more rows
…
